{
  "name": "ItemStatus",
  "options": {
    "idInjection": false,
    "mysql": {
      "schema": "taptrack",
      "table": "item_status"
    },
    "relations": {}
  },
  "properties": {
    "itemStatusId": {
      "type": "Number",
      "id": true,
      "required": false,
      "length": null,
      "precision": 11,
      "scale": 0,
      "mysql": {
        "columnName": "ID",
        "dataType": "int",
        "dataLength": null,
        "dataPrecision": 11,
        "dataScale": 0,
        "nullable": "N"
      }
    },
    "description": {
      "type": "String",
      "required": false,
      "length": 100,
      "precision": null,
      "scale": null,
      "mysql": {
        "columnName": "description",
        "dataType": "varchar",
        "dataLength": 100,
        "dataPrecision": null,
        "dataScale": null,
        "nullable": "Y"
      }
    },
    "shortDesc": {
      "type": "String",
      "required": false,
      "length": 100,
      "precision": null,
      "scale": null,
      "mysql": {
        "columnName": "short_desc",
        "dataType": "varchar",
        "dataLength": 100,
        "dataPrecision": null,
        "dataScale": null,
        "nullable": "Y"
      }
    }
  },
  "validations": [],
  "relations": {},
  "acls": [],
  "methods": {}
}
